…
Now, lets convert the matrix into a table just in case this is useful.

``` r
distance_as_table <- matrix %>%
  as_tibble() %>% 
  mutate(from = colnames(.)) %>% 
  gather(to, value, -from) %>% 
  mutate(value = as.numeric(value))

distance_as_table
```

    ## # A tibble: 81 x 3
    ##    from                      to                 value
    ##    <chr>                     <chr>              <dbl>
    ##  1 Bahia de Tortugas         Bahia de Tortugas    0  
    ##  2 Buzos y Pescadores        Bahia de Tortugas   34.4
    ##  3 California de San Ignacio Bahia de Tortugas   97.2
    ##  4 Emancipacion              Bahia de Tortugas   48.2
    ##  5 La Purisima               Bahia de Tortugas   42.9
    ##  6 Leyes de Reforma          Bahia de Tortugas  129. 
    ##  7 Progreso                  Bahia de Tortugas  159. 
    ##  8 Punta Abreojos            Bahia de Tortugas  201. 
    ##  9 Isla Cedros               Bahia de Tortugas   72.4
    ## 10 Bahia de Tortugas         Buzos y Pescadores  34.4
    ## # … with 71 more rows
…
